%YAML 1.1
%TAG !u! tag:unity3d.com,2011:
--- !u!114 &11400000
MonoBehaviour:
  m_ObjectHideFlags: 0
  m_PrefabParentObject: {fileID: 0}
  m_PrefabInternal: {fileID: 0}
  m_GameObject: {fileID: 0}
  m_Enabled: 1
  m_EditorHideFlags: 0
  m_Script: {fileID: 11500000, guid: 976bdb0eec11d564fbeeeff4838d496b, type: 3}
  m_Name: Tower I
  m_EditorClassIdentifier: 
  detectionRadius: 2
  health: 1
  cost: 50
